Predict Probability of Sales on Inbound Call Center Traffic
…
## [1] "Unique TFNs :  5255"

## [1] "No of area codes :  404"

## [1] "No of CallSkills :  24"

## [1] "No of Original Skills :  17"

## [1] "No of CableCompany :  323"

## [1] "No of Affiliates :  89"

## [1] "Percent of CallsDate, Pr(CallsDate)"

## # A tibble: 31 x 2
##    CallDate PercentOfTot
##       <chr>        <dbl>
## 1    5/1/16     0.020707
## 2   5/10/16     0.039182
## 3   5/11/16     0.037731
## 4   5/12/16     0.034710
## 5   5/13/16     0.035105
## 6   5/14/16     0.023719
## 7   5/15/16     0.017422
## 8   5/16/16     0.041619
## 9   5/17/16     0.037609
## 10  5/18/16     0.035852
## # ... with 21 more rows

## [1] "Percent of AgentId, Pr(AgentID)"

## # A tibble: 689 x 2
##    AgentID PercentOfTot
##      <chr>        <dbl>
## 1     5550     0.000383
## 2     5566     0.000006
## 3     5600     0.000018
## 4     5627     0.000606
## 5     5641     0.000046
## 6     5658     0.000028
## 7     5675     0.003318
## 8     5695     0.000187
## 9     5704     0.000009
## 10    5707     0.000122
## # ... with 679 more rows

## [1] "Percent of TFN, Pr(TFN)"

## # A tibble: 5,255 x 2
##           TFN PercentOfTot
##         <dbl>        <dbl>
## 1  2153373582     0.000092
## 2  2153373587     0.000009
## 3  2153373636     0.000024
## 4  2153373637     0.000006
## 5  2153373640     0.001004
## 6  2153373641     0.000897
## 7  2153373642     0.000040
## 8  2153373643     0.000018
## 9  2153373644     0.000049
## 10 2153373645     0.000046
## # ... with 5,245 more rows

## [1] "Percent of CallSkill, Pr(CallSkill)"

## # A tibble: 24 x 2
##    CallSkill PercentOfTot
##        <int>        <dbl>
## 1        100     0.029645
## 2        101     0.051778
## 3        102     0.047009
## 4        103     0.035607
## 5        108     0.018524
## 6        117     0.007233
## 7        210     0.009489
## 8        222     0.018687
## 9        300     0.064606
## 10       301     0.188795
## # ... with 14 more rows
…
## [1] "Percent of CableCompany, Pr(CableCompany)"

## # A tibble: 323 x 2
##                                CableCompany PercentOfTot
##                                       <chr>        <dbl>
## 1                                               0.000658
## 2                                10Channels     0.000003
## 3                      2TurnItOn - Outbound     0.000533
## 4                                     5LINX     0.000312
## 5                732 Numbers Charter Retail     0.000028
## 6                      732Numbers Earthlink     0.000569
## 7  76766 -\312nuHome Promotions - MSO - TWC     0.000104
## 8     80191 - nuHome Promotions - MSO - COX     0.000101
## 9                                       ADT     0.000070
## 10                                      AOL     0.000003
## # ... with 313 more rows

## [1] "Percent of Affiliate, Pr(Affiliate)"

## # A tibble: 89 x 2
##                   Affiliate PercentOfTot
##                       <chr>        <dbl>
## 1                10Channels     0.000003
## 2             2TurnItOn.com     0.000533
## 3                     5LINX     0.000312
## 4           732-Numbers LLC     0.001457
## 5                   ABENITY     0.000006
## 6            AP Media Group     0.000003
## 7              Acceller_DSI     0.000591
## 8               Adknowledge     0.000018
## 9  Advanced Home Protection     0.001491
## 10          All Bundles LLC     0.000003
## # ... with 79 more rows

## [1] "Percent of AreaCode, Pr(AreaCode)"

## # A tibble: 404 x 2
##    AreaCode PercentOfTot
##       <chr>        <dbl>
## 1       201     0.003168
## 2       202     0.005993
## 3       203     0.005803
## 4       204     0.000037
## 5       205     0.004637
## 6       206     0.003128
## 7       207     0.003750
## 8       208     0.002479
## 9       209     0.004028
## 10      210     0.006657
## # ... with 394 more rows

## [1] "Percent of Sale , Pr(C)"

## # A tibble: 2 x 2
##      Sale PercentOfTot
##     <chr>        <dbl>
## 1 No Sale     0.931149
## 2    Sale     0.068851

Probability of each factor level given conversation rate C

## [1] "Pr (CallDate | C)"

## Source: local data frame [31 x 2]
## Groups: CallDate [31]
## 
##    CallDate SalesRate
##       <chr>     <dbl>
## 1    5/1/16  0.052476
## 2   5/10/16  0.073822
## 3   5/11/16  0.071145
## 4   5/12/16  0.067637
## 5   5/13/16  0.067312
## 6   5/14/16  0.050587
## 7   5/15/16  0.051300
## 8   5/16/16  0.082298
## 9   5/17/16  0.075608
## 10  5/18/16  0.073679
## # ... with 21 more rows

## [1] "Pr (AgentID | C)"

## Source: local data frame [620 x 2]
## Groups: AgentID [620]
## 
##    AgentID SalesRate
##      <chr>     <dbl>
## 1     5550  0.032000
## 2     5627  0.075758
## 3     5641  0.066667
## 4     5658  0.111111
## 5     5675  0.071033
## 6     5695  0.049180
## 7     5707  0.175000
## 8     5710  0.136598
## 9     5860  0.028571
## 10    5861  0.061093
## # ... with 610 more rows

## [1] "Pr (TFN | C)"

## Source: local data frame [1,441 x 2]
## Groups: TFN [1,441]
## 
##           TFN SalesRate
##         <dbl>     <dbl>
## 1  2153373582  0.033333
## 2  2153373587  0.666667
## 3  2153373640  0.064024
## 4  2153373641  0.081911
## 5  2153373642  0.076923
## 6  2153373643  0.333333
## 7  2153373644  0.187500
## 8  2153373645  0.066667
## 9  2153373646  0.147059
## 10 2153373648  0.200000
## # ... with 1,431 more rows

## [1] "Pr (CallSkill | C)"

## Source: local data frame [23 x 2]
## Groups: CallSkill [23]
## 
##    CallSkill SalesRate
##        <int>     <dbl>
## 1        100  0.096231
## 2        101  0.044337
## 3        102  0.063550
## 4        103  0.075561
## 5        108  0.056345
## 6        117  0.079983
## 7        210  0.077097
## 8        222  0.089762
## 9        300  0.121524
## 10       301  0.055042
## # ... with 13 more rows
…
## [1] "Pr (CableCompany | C)"

## Source: local data frame [153 x 2]
## Groups: CableCompany [153]
## 
##                                CableCompany SalesRate
##                                       <chr>     <dbl>
## 1                                            0.069767
## 2                      2TurnItOn - Outbound  0.017241
## 3                                     5LINX  0.176471
## 4                732 Numbers Charter Retail  0.111111
## 5                      732Numbers Earthlink  0.016129
## 6  76766 -\312nuHome Promotions - MSO - TWC  0.205882
## 7     80191 - nuHome Promotions - MSO - COX  0.181818
## 8                                       ATT  0.095403
## 9                               ATT Spanish  0.054264
## 10               ATT-Touchtone Technologies  0.022590
## # ... with 143 more rows

## [1] "Pr (Affiliate | C)"

## Source: local data frame [43 x 2]
## Groups: Affiliate [43]
## 
##                                        Affiliate SalesRate
##                                            <chr>     <dbl>
## 1                                  2TurnItOn.com  0.017241
## 2                                          5LINX  0.176471
## 3                                732-Numbers LLC  0.021008
## 4                       Advanced Home Protection  0.182752
## 5                          Broadband Corporation  0.045455
## 6  CJ Communications dba Home Service Connection  0.161145
## 7                                      CLEARLINK  0.146996
## 8                                 CM Enterprises  0.093960
## 9                           Cannon Satellite LLC  0.197605
## 10                             Connect Your Home  0.140354
## # ... with 33 more rows

## [1] "Pr (AreaCode | C)"

## Source: local data frame [304 x 2]
## Groups: AreaCode [304]
## 
##    AreaCode SalesRate
##       <chr>     <dbl>
## 1       201  0.058937
## 2       202  0.058733
## 3       203  0.060127
## 4       205  0.079868
## 5       206  0.055773
## 6       207  0.078367
## 7       208  0.127160
## 8       209  0.062310
## 9       210  0.055172
## 10      212  0.030303
## # ... with 294 more rows
…
