Predict Probability of Sales on Inbound Call Center Traffic
…
## [1] "Unique TFNs :  5255"

## [1] "No of area codes :  404"

## [1] "No of CallSkills :  24"

## [1] "No of Original Skills :  17"

## [1] "No of CableCompany :  323"

## [1] "No of Affiliates :  89"

## [1] "Percent of CallsDate, Pr(CallsDate)"

## # A tibble: 31 x 2
##     CallDate PercentOfTot
##        <chr>        <dbl>
## 1   5/1/2016         2.07
## 2  5/10/2016         3.92
## 3  5/11/2016         3.77
## 4  5/12/2016         3.47
## 5  5/13/2016         3.51
## 6  5/14/2016         2.37
## 7  5/15/2016         1.74
## 8  5/16/2016         4.16
## 9  5/17/2016         3.76
## 10 5/18/2016         3.59
## # ... with 21 more rows

## [1] "Percent of AgentId, Pr(AgentID)"

## # A tibble: 689 x 2
##    AgentID PercentOfTot
##      <chr>        <dbl>
## 1     5550       0.0383
## 2     5566       0.0006
## 3     5600       0.0018
## 4     5627       0.0606
## 5     5641       0.0046
## 6     5658       0.0028
## 7     5675       0.3318
## 8     5695       0.0187
## 9     5704       0.0009
## 10    5707       0.0122
## # ... with 679 more rows

## [1] "Percent of TFN, Pr(TFN)"

## # A tibble: 5,255 x 2
##           TFN PercentOfTot
##         <dbl>        <dbl>
## 1  2153373582       0.0092
## 2  2153373587       0.0009
## 3  2153373636       0.0024
## 4  2153373637       0.0006
## 5  2153373640       0.1004
## 6  2153373641       0.0897
## 7  2153373642       0.0040
## 8  2153373643       0.0018
## 9  2153373644       0.0049
## 10 2153373645       0.0046
## # ... with 5,245 more rows

## [1] "Percent of CallSkill, Pr(CallSkill)"

## # A tibble: 24 x 2
##    CallSkill PercentOfTot
##        <int>        <dbl>
## 1        100       2.9645
## 2        101       5.1778
## 3        102       4.7009
## 4        103       3.5607
## 5        108       1.8524
## 6        117       0.7233
## 7        210       0.9489
## 8        222       1.8687
## 9        300       6.4606
## 10       301      18.8795
## # ... with 14 more rows
…
## [1] "Percent of CableCompany, Pr(CableCompany)"

## # A tibble: 323 x 2
##                                CableCompany PercentOfTot
##                                       <chr>        <dbl>
## 1                                                 0.0658
## 2                                10Channels       0.0003
## 3                      2TurnItOn - Outbound       0.0533
## 4                                     5LINX       0.0312
## 5                732 Numbers Charter Retail       0.0028
## 6                      732Numbers Earthlink       0.0569
## 7  76766 -\240nuHome Promotions - MSO - TWC       0.0104
## 8     80191 - nuHome Promotions - MSO - COX       0.0101
## 9                                       ADT       0.0070
## 10                                      AOL       0.0003
## # ... with 313 more rows

## [1] "Percent of Affiliate, Pr(Affiliate)"

## # A tibble: 89 x 2
##                   Affiliate PercentOfTot
##                       <chr>        <dbl>
## 1                10Channels       0.0003
## 2             2TurnItOn.com       0.0533
## 3                     5LINX       0.0312
## 4           732-Numbers LLC       0.1457
## 5                   ABENITY       0.0006
## 6            AP Media Group       0.0003
## 7              Acceller_DSI       0.0591
## 8               Adknowledge       0.0018
## 9  Advanced Home Protection       0.1491
## 10          All Bundles LLC       0.0003
## # ... with 79 more rows

## [1] "Percent of AreaCode, Pr(AreaCode)"

## # A tibble: 404 x 2
##    AreaCode PercentOfTot
##       <chr>        <dbl>
## 1       201       0.3168
## 2       202       0.5993
## 3       203       0.5803
## 4       204       0.0037
## 5       205       0.4637
## 6       206       0.3128
## 7       207       0.3750
## 8       208       0.2479
## 9       209       0.4028
## 10      210       0.6657
## # ... with 394 more rows

## [1] "Percent of Sale , Pr(C)"

## # A tibble: 2 x 2
##      Sale PercentOfTot
##     <chr>        <dbl>
## 1 No Sale        93.11
## 2    Sale         6.89

Probability of each factor level given conversation rate C

## [1] "Pr (CallDate | C)"

## Source: local data frame [31 x 2]
## Groups: CallDate [31]
## 
##     CallDate SalesRate
##        <chr>     <dbl>
## 1   5/1/2016      5.25
## 2  5/10/2016      7.38
## 3  5/11/2016      7.11
## 4  5/12/2016      6.76
## 5  5/13/2016      6.73
## 6  5/14/2016      5.06
## 7  5/15/2016      5.13
## 8  5/16/2016      8.23
## 9  5/17/2016      7.56
## 10 5/18/2016      7.37
## # ... with 21 more rows

## [1] "Pr (AgentID | C)"

## Source: local data frame [620 x 2]
## Groups: AgentID [620]
## 
##    AgentID SalesRate
##      <chr>     <dbl>
## 1     5550      3.20
## 2     5627      7.58
## 3     5641      6.67
## 4     5658     11.11
## 5     5675      7.10
## 6     5695      4.92
## 7     5707     17.50
## 8     5710     13.66
## 9     5860      2.86
## 10    5861      6.11
## # ... with 610 more rows

## [1] "Pr (TFN | C)"

## Source: local data frame [1,441 x 2]
## Groups: TFN [1,441]
## 
##           TFN SalesRate
##         <dbl>     <dbl>
## 1  2153373582      3.33
## 2  2153373587     66.67
## 3  2153373640      6.40
## 4  2153373641      8.19
## 5  2153373642      7.69
## 6  2153373643     33.33
## 7  2153373644     18.75
## 8  2153373645      6.67
## 9  2153373646     14.71
## 10 2153373648     20.00
## # ... with 1,431 more rows

## [1] "Pr (CallSkill | C)"

## Source: local data frame [23 x 2]
## Groups: CallSkill [23]
## 
##    CallSkill SalesRate
##        <int>     <dbl>
## 1        100      9.62
## 2        101      4.43
## 3        102      6.35
## 4        103      7.56
## 5        108      5.63
## 6        117      8.00
## 7        210      7.71
## 8        222      8.98
## 9        300     12.15
## 10       301      5.50
## # ... with 13 more rows
…
## [1] "Pr (CableCompany | C)"

## Source: local data frame [153 x 2]
## Groups: CableCompany [153]
## 
##                                CableCompany SalesRate
##                                       <chr>     <dbl>
## 1                                                6.98
## 2                      2TurnItOn - Outbound      1.72
## 3                                     5LINX     17.65
## 4                732 Numbers Charter Retail     11.11
## 5                      732Numbers Earthlink      1.61
## 6  76766 -\240nuHome Promotions - MSO - TWC     20.59
## 7     80191 - nuHome Promotions - MSO - COX     18.18
## 8                                       ATT      9.54
## 9                               ATT Spanish      5.43
## 10               ATT-Touchtone Technologies      2.26
## # ... with 143 more rows

## [1] "Pr (Affiliate | C)"

## Source: local data frame [43 x 2]
## Groups: Affiliate [43]
## 
##                                        Affiliate SalesRate
##                                            <chr>     <dbl>
## 1                                  2TurnItOn.com      1.72
## 2                                          5LINX     17.65
## 3                                732-Numbers LLC      2.10
## 4                       Advanced Home Protection     18.28
## 5                          Broadband Corporation      4.55
## 6  CJ Communications dba Home Service Connection     16.11
## 7                                      CLEARLINK     14.70
## 8                                 CM Enterprises      9.40
## 9                           Cannon Satellite LLC     19.76
## 10                             Connect Your Home     14.04
## # ... with 33 more rows

## [1] "Pr (AreaCode | C)"

## Source: local data frame [304 x 2]
## Groups: AreaCode [304]
## 
##    AreaCode SalesRate
##       <chr>     <dbl>
## 1       201      5.89
## 2       202      5.87
## 3       203      6.01
## 4       205      7.99
## 5       206      5.58
## 6       207      7.84
## 7       208     12.72
## 8       209      6.23
## 9       210      5.52
## 10      212      3.03
## # ... with 294 more rows
…
